%YAML 1.1
%TAG !u! tag:unity3d.com,2011:
--- !u!1001 &1448748192703756881
PrefabInstance:
  m_ObjectHideFlags: 0
  serializedVersion: 2
  m_Modification:
    m_TransformParent: {fileID: 0}
    m_Modifications:
    - target: {fileID: 3158683305799160767, guid: 3060ee23a54a8df478b475ad6740587c, type: 3}
      propertyPath: m_Size.x
      value: 1
      objectReference: {fileID: 0}
    - target: {fileID: 3158683305799160767, guid: 3060ee23a54a8df478b475ad6740587c, type: 3}
      propertyPath: m_Size.y
      value: 1
      objectReference: {fileID: 0}
    - target: {fileID: 3158683305799160767, guid: 3060ee23a54a8df478b475ad6740587c, type: 3}
      propertyPath: m_Sprite
      value: 
      objectReference: {fileID: -606777483, guid: b9377a5ef460b08469f118174dcfb03b, type: 3}
    - target: {fileID: 7628703641583249958, guid: 3060ee23a54a8df478b475ad6740587c, type: 3}
      propertyPath: m_RootOrder
      value: 0
      objectReference: {fileID: 0}
    - target: {fileID: 7628703641583249958, guid: 3060ee23a54a8df478b475ad6740587c, type: 3}
      propertyPath: m_LocalPosition.x
      value: 0
      objectReference: {fileID: 0}
    - target: {fileID: 7628703641583249958, guid: 3060ee23a54a8df478b475ad6740587c, type: 3}
      propertyPath: m_LocalPosition.y
      value: 0
      objectReference: {fileID: 0}
    - target: {fileID: 7628703641583249958, guid: 3060ee23a54a8df478b475ad6740587c, type: 3}
      propertyPath: m_LocalPosition.z
      value: 0
      objectReference: {fileID: 0}
    - target: {fileID: 7628703641583249958, guid: 3060ee23a54a8df478b475ad6740587c, type: 3}
      propertyPath: m_LocalRotation.w
      value: 1
      objectReference: {fileID: 0}
    - target: {fileID: 7628703641583249958, guid: 3060ee23a54a8df478b475ad6740587c, type: 3}
      propertyPath: m_LocalRotation.x
      value: 0
      objectReference: {fileID: 0}
    - target: {fileID: 7628703641583249958, guid: 3060ee23a54a8df478b475ad6740587c, type: 3}
      propertyPath: m_LocalRotation.y
      value: 0
      objectReference: {fileID: 0}
    - target: {fileID: 7628703641583249958, guid: 3060ee23a54a8df478b475ad6740587c, type: 3}
      propertyPath: m_LocalRotation.z
      value: 0
      objectReference: {fileID: 0}
    - target: {fileID: 7628703641583249958, guid: 3060ee23a54a8df478b475ad6740587c, type: 3}
      propertyPath: m_LocalEulerAnglesHint.x
      value: 0
      objectReference: {fileID: 0}
    - target: {fileID: 7628703641583249958, guid: 3060ee23a54a8df478b475ad6740587c, type: 3}
      propertyPath: m_LocalEulerAnglesHint.y
      value: 0
      objectReference: {fileID: 0}
    - target: {fileID: 7628703641583249958, guid: 3060ee23a54a8df478b475ad6740587c, type: 3}
      propertyPath: m_LocalEulerAnglesHint.z
      value: 0
      objectReference: {fileID: 0}
    - target: {fileID: 8973874905582180990, guid: 3060ee23a54a8df478b475ad6740587c, type: 3}
      propertyPath: m_Name
      value: VisitorCat3
      objectReference: {fileID: 0}
    m_RemovedComponents: []
  m_SourcePrefab: {fileID: 100100000, guid: 3060ee23a54a8df478b475ad6740587c, type: 3}
