%YAML 1.1
%TAG !u! tag:unity3d.com,2011:
--- !u!114 &11400000
MonoBehaviour:
  m_ObjectHideFlags: 0
  m_CorrespondingSourceObject: {fileID: 0}
  m_PrefabInstance: {fileID: 0}
  m_PrefabAsset: {fileID: 0}
  m_GameObject: {fileID: 0}
  m_Enabled: 1
  m_EditorHideFlags: 0
  m_Script: {fileID: 11500000, guid: 6c1dfcd4f47f3064f937a9e98ba70cbe, type: 3}
  m_Name: Resource2
  m_EditorClassIdentifier: 
  _type: 1
  _price: 2
  _countInPrefab: 1
  _resourceIcon: {fileID: 21300000, guid: 0956e232495b1d74e93b6ff4a39cfb4c, type: 3}
  _resourceMesh: {fileID: 798035055718525027, guid: c2b2d11fb9161814d85fe4bf90f97227, type: 3}
  _colliderMesh: {fileID: 798035055718525027, guid: c2b2d11fb9161814d85fe4bf90f97227, type: 3}
