%YAML 1.1
%TAG !u! tag:unity3d.com,2011:
--- !u!114 &11400000
MonoBehaviour:
  m_ObjectHideFlags: 0
  m_CorrespondingSourceObject: {fileID: 0}
  m_PrefabInstance: {fileID: 0}
  m_PrefabAsset: {fileID: 0}
  m_GameObject: {fileID: 0}
  m_Enabled: 1
  m_EditorHideFlags: 0
  m_Script: {fileID: 11500000, guid: 3d2d0e35785d426dad249100ec6dd4d2, type: 3}
  m_Name: BlueBerry
  m_EditorClassIdentifier: 
  _productType: 1
  _sprite: {fileID: 21300000, guid: 64da4cb8c8f3a414eb867616a2bf08ad, type: 3}
  _processTime: 5
  _resourceType: 0
  _addedValue: 10
